\relax 
\@writefile{toc}{\contentsline {section}{\numberline {1}Initial investigation}{1}}
\@writefile{toc}{\contentsline {subsection}{\numberline {1.1}Setup}{1}}
\@writefile{toc}{\contentsline {subsection}{\numberline {1.2}Plotting sales}{1}}
\@writefile{toc}{\contentsline {subsection}{\numberline {1.3}Seasonal dependence}{3}}
\@writefile{toc}{\contentsline {subsection}{\numberline {1.4}Principal Component Analysis}{5}}
\@writefile{toc}{\contentsline {section}{\numberline {2}Linear regression}{7}}
\@writefile{toc}{\contentsline {subsection}{\numberline {2.1}Regression against all independent variables}{7}}
\@writefile{toc}{\contentsline {subsection}{\numberline {2.2}Choosing a more robust set}{8}}
\@writefile{toc}{\contentsline {subsection}{\numberline {2.3}Manually choosing the regressors}{10}}
\@writefile{toc}{\contentsline {subsection}{\numberline {2.4}Interactions between media and occurrences}{11}}
\@writefile{toc}{\contentsline {subsection}{\numberline {2.5}Non-linear terms}{13}}
\@writefile{toc}{\contentsline {subsection}{\numberline {2.6}Interaction between different media}{14}}
\@writefile{toc}{\contentsline {subsection}{\numberline {2.7}Using the ``log'' ansatz}{15}}
\@writefile{toc}{\contentsline {subsection}{\numberline {2.8}Summary}{16}}
\@writefile{toc}{\contentsline {section}{\numberline {3}Relative efficiency of the media tactics}{17}}
\@writefile{toc}{\contentsline {section}{\numberline {4}Optimal advertising budget}{18}}
