settings.outformat="pdf";
defaultpen(fontsize(10pt));
size(12cm, 0);
path p =(0,0) .. (4,.3) .. (5,-.3) .. (5,-4);
draw(p);
Label L1 = Label("BeginPoint", position=BeginPoint);
label(L1, p);
Label L2 = Label("MidPoint", position=MidPoint);
label(L2, p);
Label L3 = Label("EndPoint", position=EndPoint);
Label L4 = Label("Relative(0.25)", position=Relative(0.25));
label(L3, p);
label(L4, p);
